{
  "products": [
    {"_id":"dress1",
    "title": "Dress 1", "description": "about dress 1",
      "price": 19.85,
      "image": "/images/dress1.jpg",
      "availableSize": ["X","L","XL","XXL"]
    },
    {"_id":"dress2",
      "title": "Midi Sundress with ruched front",
      "price": 50.5,
      "image": "/images/dress2.jpg",
      "availableSize": ["X","L","XL"]
    },
    {"_id":"dress3",
      "title": "Midi Sundress with ruched front",
      "price": 25.4,
      "image": "/images/dress3.jpg",
      "availableSize": ["X","L","XL"]
    },
    {"_id":"dress4",
      "title": "Midi Sundress with ruched front",
      "price": 15.1,
      "image": "/images/dress4.jpg",
      "availableSize": ["X","L","XL"]
    },
    {"_id":"dress5",
      "title": "Midi Sundress with ruched front",
      "price": 45.5,
      "image": "/images/dress5.jpg",
      "availableSize": ["X","L","XL"]
    },
    {"_id":"dress6",
      "title": "Midi Sundress with ruched front",
      "price": 85.4,
      "image": "/images/dress6.jpg",
      "availableSize": ["X","L","XL"]
    }
  ]
}